%YAML 1.1
%TAG !u! tag:unity3d.com,2011:
--- !u!114 &11400000
MonoBehaviour:
  m_ObjectHideFlags: 0
  m_CorrespondingSourceObject: {fileID: 0}
  m_PrefabInstance: {fileID: 0}
  m_PrefabAsset: {fileID: 0}
  m_GameObject: {fileID: 0}
  m_Enabled: 1
  m_EditorHideFlags: 0
  m_Script: {fileID: 11500000, guid: df2874d85e5b4bdfa804a81c19dd9b28, type: 3}
  m_Name: LayerGlobals
  m_EditorClassIdentifier: 
  permeateCast: PermeateCast
  character: Character
  permeateCharacter: PhasingCharacter
  ledge: Ledge
  water: Water
  waterScanner: WaterScanner
