{
    "name": "EditModeTests",
    "rootNamespace": "",
    "references": [
        "UnityEngine.TestRunner",
        "UnityEditor.TestRunner",
        "PlatformVS.Core",
        "PlatformVS.Input",
        "PlatformVS.StateMachines",
        "StateSystem",
        "UniBoost"
    ],
    "includePlatforms": [
        "Editor"
    ],
    "excludePlatforms": [],
    "allowUnsafeCode": false,
    "overrideReferences": true,
    "precompiledReferences": [
        "nunit.framework.dll"
    ],
    "autoReferenced": false,
    "defineConstraints": [
        "UNITY_INCLUDE_TESTS"
    ],
    "versionDefines": [],
    "noEngineReferences": false
}