{
    "name": "EDTests",
    "rootNamespace": "",
    "references": [
        "UnityEngine.TestRunner",
        "UnityEditor.TestRunner",
        "UniBoost",
        "Source"
    ],
    "includePlatforms": [
        "Editor"
    ],
    "excludePlatforms": [],
    "allowUnsafeCode": false,
    "overrideReferences": true,
    "precompiledReferences": [
        "nunit.framework.dll"
    ],
    "autoReferenced": false,
    "defineConstraints": [
        "UNITY_INCLUDE_TESTS"
    ],
    "versionDefines": [],
    "noEngineReferences": false
}